Board size: 28 x 28
____________________________
____________________________
____________________________
____________________________
____________________________
____________________________
____________________________
____________________________
____________________________
_________X__________________
________X_X_________________
________X_X____XX___________
_________X____X_X________XX_
_______________X________X__X
_________________________XX_
____________________________
____________________________
____________________________
____________________________
____________________________
_________________________XX_
_________________________XX_
____________________________
____________________________
____________________________
____________________________
____________________________
____________________________
