8
28
X_X__X_XX_X_X_XX_X_X_____XX_
__XXX__X_XX__X__X_X____X___X
____XX___X_XX_XXX__XX____X_X
__X_X_X___XX____X__XX_XXX___
XX____XX_X_X___XXXXX____X___
_XX_XXXX__XX____XX_XX_X___X_
__XX_______XX__XXX_XXXXXX___
X_X_X___XXX_XX_X_XXXX_XXX_XX
