23
_X____XX_X_____X_XX_XX_
XXX_X_X_XXX____X___X_XX
__XXX_XX_XX_X___X_X_X__
XXX__________X__X_X___X
______XXX_X_XX___XXX___
__X_X_XXXX___XX_X__X___
XX_XXX___X_XX__X____XX_
_XXXX_X__XX____XX_X_X_X
XX_X__XXXXXX__XXX__XXX_
XXXX_X___XX____X__XXXXX
_X_XX_X_XXXXXXX__XXX___
___X__X_XX_X_XXXX_X____
XX_X_XXXX__XX_X__XXX__X
X__XXX___XX______X__XX_
X__X___X_____X_____XXXX
__XXX_X__X___X___X_X___
XXXXXXXXXX_XXX_X___XX__
XX__X_XX_XX_X_X__XX_XXX
X____XX_XXX________X_XX
X_XX__X________X_XXX_X_
X_X___XXX_XXX__X_X_X_X_
___X_XXXX_XXX_XX___XXX_
X_______XXXX__X_____XX_
