Num Of Living Cell: 39 
Board size: 25 x 29
_XX__________________________
X_X__________________________
X____________________________
XX___________________________
___________XX________________
___________XX________________
__________________________XX_
__________________________XX_
_____________________________
_____________________________
________________X____________
_______________X_X___________
_______________XX____________
___XX________________________
___XX________________________
_______________X_____________
_______________X_____________
_______________X_____________
_____________________________
_____________________________
_____________________________
_____XX______________________
____X__X_____________XX______
_____XX_____________X__X_____
_____________________XX______
