13
28
X_X__X_XX_X_X_XX_X_X_____XX_
__XXX__X_XX__X__X_X____X___X
____XX___X_XX_XXX__XX____X_X
__X_X_X___XX____X__XX_XXX___
XX____XX_X_X___XXXXX____X___
_XX_XXXX__XX____XX_XX_X___X_
__XX_______XX__XXX_XXXXXX___
X_X_X___XXX_XX_X_XXXX_XXX_XX
X__XX_XXX__XXX_XX_X____XXXXX
__X_X_________X_____X_XXXXX_
XX___XXX___X_XXX_X_X_X_X_XXX
XX_XXX_XX_XXX_X__X__XX_XX_XX
_XX_X__X_XXX_XX__X___XX_____
